%YAML 1.1
%TAG !u! tag:unity3d.com,2011:
--- !u!29 &1
OcclusionCullingSettings:
  m_ObjectHideFlags: 0
  serializedVersion: 2
  m_OcclusionBakeSettings:
    smallestOccluder: 5
    smallestHole: 0.25
    backfaceThreshold: 100
  m_SceneGUID: 00000000000000000000000000000000
  m_OcclusionCullingData: {fileID: 0}
--- !u!104 &2
RenderSettings:
  m_ObjectHideFlags: 0
  serializedVersion: 8
  m_Fog: 0
  m_FogColor: {r: 0.5, g: 0.5, b: 0.5, a: 1}
  m_FogMode: 3
  m_FogDensity: 0.01
  m_LinearFogStart: 0
  m_LinearFogEnd: 300
  m_AmbientSkyColor: {r: 0.212, g: 0.227, b: 0.259, a: 1}
  m_AmbientEquatorColor: {r: 0.114, g: 0.125, b: 0.133, a: 1}
  m_AmbientGroundColor: {r: 0.047, g: 0.043, b: 0.035, a: 1}
  m_AmbientIntensity: 1
  m_AmbientMode: 0
  m_SubtractiveShadowColor: {r: 0.42, g: 0.478, b: 0.627, a: 1}
  m_SkyboxMaterial: {fileID: 10304, guid: 0000000000000000f000000000000000, type: 0}
  m_HaloStrength: 0.5
  m_FlareStrength: 1
  m_FlareFadeSpeed: 3
  m_HaloTexture: {fileID: 0}
  m_SpotCookie: {fileID: 10001, guid: 0000000000000000e000000000000000, type: 0}
  m_DefaultReflectionMode: 0
  m_DefaultReflectionResolution: 128
  m_ReflectionBounces: 1
  m_ReflectionIntensity: 1
  m_CustomReflection: {fileID: 0}
  m_Sun: {fileID: 0}
  m_IndirectSpecularColor: {r: 0.37311992, g: 0.38074034, b: 0.35872713, a: 1}
--- !u!157 &3
LightmapSettings:
  m_ObjectHideFlags: 0
  serializedVersion: 11
  m_GIWorkflowMode: 0
  m_GISettings:
    serializedVersion: 2
    m_BounceScale: 1
    m_IndirectOutputScale: 1
    m_AlbedoBoost: 1
    m_TemporalCoherenceThreshold: 1
    m_EnvironmentLightingMode: 0
    m_EnableBakedLightmaps: 1
    m_EnableRealtimeLightmaps: 1
  m_LightmapEditorSettings:
    serializedVersion: 9
    m_Resolution: 2
    m_BakeResolution: 40
    m_TextureWidth: 1024
    m_TextureHeight: 1024
    m_AO: 0
    m_AOMaxDistance: 1
    m_CompAOExponent: 1
    m_CompAOExponentDirect: 0
    m_Padding: 2
    m_LightmapParameters: {fileID: 0}
    m_LightmapsBakeMode: 1
    m_TextureCompression: 1
    m_FinalGather: 0
    m_FinalGatherFiltering: 1
    m_FinalGatherRayCount: 256
    m_ReflectionCompression: 2
    m_MixedBakeMode: 2
    m_BakeBackend: 0
    m_PVRSampling: 1
    m_PVRDirectSampleCount: 32
    m_PVRSampleCount: 500
    m_PVRBounces: 2
    m_PVRFilterTypeDirect: 0
    m_PVRFilterTypeIndirect: 0
    m_PVRFilterTypeAO: 0
    m_PVRFilteringMode: 1
    m_PVRCulling: 1
    m_PVRFilteringGaussRadiusDirect: 1
    m_PVRFilteringGaussRadiusIndirect: 5
    m_PVRFilteringGaussRadiusAO: 2
    m_PVRFilteringAtrousPositionSigmaDirect: 0.5
    m_PVRFilteringAtrousPositionSigmaIndirect: 2
    m_PVRFilteringAtrousPositionSigmaAO: 1
  m_LightingDataAsset: {fileID: 0}
  m_UseShadowmask: 1
--- !u!196 &4
NavMeshSettings:
  serializedVersion: 2
  m_ObjectHideFlags: 0
  m_BuildSettings:
    serializedVersion: 2
    agentTypeID: 0
    agentRadius: 0.5
    agentHeight: 2
    agentSlope: 45
    agentClimb: 0.4
    ledgeDropHeight: 0
    maxJumpAcrossDistance: 0
    minRegionArea: 2
    manualCellSize: 0
    cellSize: 0.16666667
    manualTileSize: 0
    tileSize: 256
    accuratePlacement: 0
    debug:
      m_Flags: 0
  m_NavMeshData: {fileID: 0}
--- !u!114 &228549034 stripped
MonoBehaviour:
  m_PrefabParentObject: {fileID: 114132326436286286, guid: c4bddd89cc57a9d41801ebada1a6ce3e,
    type: 2}
  m_PrefabInternal: {fileID: 1595088279}
  m_Script: {fileID: -98529514, guid: f70555f144d8491a825f0804e09c671c, type: 3}
--- !u!224 &482875106 stripped
RectTransform:
  m_PrefabParentObject: {fileID: 224745360448840574, guid: e24aebeb53765174e99011ff3d6de17b,
    type: 2}
  m_PrefabInternal: {fileID: 687226300}
--- !u!1 &642879338 stripped
GameObject:
  m_PrefabParentObject: {fileID: 1404626704292580, guid: c4bddd89cc57a9d41801ebada1a6ce3e,
    type: 2}
  m_PrefabInternal: {fileID: 1595088279}
--- !u!1001 &687226300
Prefab:
  m_ObjectHideFlags: 0
  serializedVersion: 2
  m_Modification:
    m_TransformParent: {fileID: 0}
    m_Modifications:
    - target: {fileID: 224745360448840574, guid: e24aebeb53765174e99011ff3d6de17b,
        type: 2}
      propertyPath: m_LocalPosition.x
      value: 0
      objectReference: {fileID: 0}
    - target: {fileID: 224745360448840574, guid: e24aebeb53765174e99011ff3d6de17b,
        type: 2}
      propertyPath: m_LocalPosition.y
      value: 0
      objectReference: {fileID: 0}
    - target: {fileID: 224745360448840574, guid: e24aebeb53765174e99011ff3d6de17b,
        type: 2}
      propertyPath: m_LocalPosition.z
      value: 0
      objectReference: {fileID: 0}
    - target: {fileID: 224745360448840574, guid: e24aebeb53765174e99011ff3d6de17b,
        type: 2}
      propertyPath: m_LocalRotation.x
      value: 0
      objectReference: {fileID: 0}
    - target: {fileID: 224745360448840574, guid: e24aebeb53765174e99011ff3d6de17b,
        type: 2}
      propertyPath: m_LocalRotation.y
      value: 0
      objectReference: {fileID: 0}
    - target: {fileID: 224745360448840574, guid: e24aebeb53765174e99011ff3d6de17b,
        type: 2}
      propertyPath: m_LocalRotation.z
      value: 0
      objectReference: {fileID: 0}
    - target: {fileID: 224745360448840574, guid: e24aebeb53765174e99011ff3d6de17b,
        type: 2}
      propertyPath: m_LocalRotation.w
      value: 1
      objectReference: {fileID: 0}
    - target: {fileID: 224745360448840574, guid: e24aebeb53765174e99011ff3d6de17b,
        type: 2}
      propertyPath: m_RootOrder
      value: 3
      objectReference: {fileID: 0}
    - target: {fileID: 224745360448840574, guid: e24aebeb53765174e99011ff3d6de17b,
        type: 2}
      propertyPath: m_AnchoredPosition.x
      value: 0
      objectReference: {fileID: 0}
    - target: {fileID: 224745360448840574, guid: e24aebeb53765174e99011ff3d6de17b,
        type: 2}
      propertyPath: m_AnchoredPosition.y
      value: 0
      objectReference: {fileID: 0}
    - target: {fileID: 224745360448840574, guid: e24aebeb53765174e99011ff3d6de17b,
        type: 2}
      propertyPath: m_SizeDelta.x
      value: 100
      objectReference: {fileID: 0}
    - target: {fileID: 224745360448840574, guid: e24aebeb53765174e99011ff3d6de17b,
        type: 2}
      propertyPath: m_SizeDelta.y
      value: 100
      objectReference: {fileID: 0}
    - target: {fileID: 224745360448840574, guid: e24aebeb53765174e99011ff3d6de17b,
        type: 2}
      propertyPath: m_AnchorMin.x
      value: 0.5
      objectReference: {fileID: 0}
    - target: {fileID: 224745360448840574, guid: e24aebeb53765174e99011ff3d6de17b,
        type: 2}
      propertyPath: m_AnchorMin.y
      value: 0.5
      objectReference: {fileID: 0}
    - target: {fileID: 224745360448840574, guid: e24aebeb53765174e99011ff3d6de17b,
        type: 2}
      propertyPath: m_AnchorMax.x
      value: 0.5
      objectReference: {fileID: 0}
    - target: {fileID: 224745360448840574, guid: e24aebeb53765174e99011ff3d6de17b,
        type: 2}
      propertyPath: m_AnchorMax.y
      value: 0.5
      objectReference: {fileID: 0}
    - target: {fileID: 224745360448840574, guid: e24aebeb53765174e99011ff3d6de17b,
        type: 2}
      propertyPath: m_Pivot.x
      value: 0.5
      objectReference: {fileID: 0}
    - target: {fileID: 224745360448840574, guid: e24aebeb53765174e99011ff3d6de17b,
        type: 2}
      propertyPath: m_Pivot.y
      value: 0.5
      objectReference: {fileID: 0}
    - target: {fileID: 223190478543203266, guid: e24aebeb53765174e99011ff3d6de17b,
        type: 2}
      propertyPath: m_Camera
      value: 
      objectReference: {fileID: 2059334217}
    m_RemovedComponents: []
  m_ParentPrefab: {fileID: 100100000, guid: e24aebeb53765174e99011ff3d6de17b, type: 2}
  m_IsPrefabParent: 0
--- !u!1 &956455119
GameObject:
  m_ObjectHideFlags: 0
  m_PrefabParentObject: {fileID: 0}
  m_PrefabInternal: {fileID: 0}
  serializedVersion: 5
  m_Component:
  - component: {fileID: 956455122}
  - component: {fileID: 956455121}
  - component: {fileID: 956455120}
  m_Layer: 0
  m_Name: EventSystem
  m_TagString: Untagged
  m_Icon: {fileID: 0}
  m_NavMeshLayer: 0
  m_StaticEditorFlags: 0
  m_IsActive: 1
--- !u!114 &956455120
MonoBehaviour:
  m_ObjectHideFlags: 0
  m_PrefabParentObject: {fileID: 0}
  m_PrefabInternal: {fileID: 0}
  m_GameObject: {fileID: 956455119}
  m_Enabled: 1
  m_EditorHideFlags: 0
  m_Script: {fileID: 1077351063, guid: f70555f144d8491a825f0804e09c671c, type: 3}
  m_Name: 
  m_EditorClassIdentifier: 
  m_HorizontalAxis: Horizontal
  m_VerticalAxis: Vertical
  m_SubmitButton: Submit
  m_CancelButton: Cancel
  m_InputActionsPerSecond: 10
  m_RepeatDelay: 0.5
  m_ForceModuleActive: 0
--- !u!114 &956455121
MonoBehaviour:
  m_ObjectHideFlags: 0
  m_PrefabParentObject: {fileID: 0}
  m_PrefabInternal: {fileID: 0}
  m_GameObject: {fileID: 956455119}
  m_Enabled: 1
  m_EditorHideFlags: 0
  m_Script: {fileID: -619905303, guid: f70555f144d8491a825f0804e09c671c, type: 3}
  m_Name: 
  m_EditorClassIdentifier: 
  m_FirstSelected: {fileID: 0}
  m_sendNavigationEvents: 1
  m_DragThreshold: 5
--- !u!4 &956455122
Transform:
  m_ObjectHideFlags: 0
  m_PrefabParentObject: {fileID: 0}
  m_PrefabInternal: {fileID: 0}
  m_GameObject: {fileID: 956455119}
  m_LocalRotation: {x: 0, y: 0, z: 0, w: 1}
  m_LocalPosition: {x: 0, y: 0, z: 0}
  m_LocalScale: {x: 1, y: 1, z: 1}
  m_Children: []
  m_Father: {fileID: 0}
  m_RootOrder: 1
  m_LocalEulerAnglesHint: {x: 0, y: 0, z: 0}
--- !u!1 &1153699163 stripped
GameObject:
  m_PrefabParentObject: {fileID: 1548212977093468, guid: 06cd200bc6d90934d8d44fdef72272c5,
    type: 2}
  m_PrefabInternal: {fileID: 1218395324}
--- !u!1 &1206637894
GameObject:
  m_ObjectHideFlags: 0
  m_PrefabParentObject: {fileID: 0}
  m_PrefabInternal: {fileID: 0}
  serializedVersion: 5
  m_Component:
  - component: {fileID: 1206637895}
  - component: {fileID: 1206637896}
  m_Layer: 0
  m_Name: SceneManager
  m_TagString: Untagged
  m_Icon: {fileID: 0}
  m_NavMeshLayer: 0
  m_StaticEditorFlags: 0
  m_IsActive: 1
--- !u!4 &1206637895
Transform:
  m_ObjectHideFlags: 0
  m_PrefabParentObject: {fileID: 0}
  m_PrefabInternal: {fileID: 0}
  m_GameObject: {fileID: 1206637894}
  m_LocalRotation: {x: 0, y: 0, z: 0, w: 1}
  m_LocalPosition: {x: 0, y: 1, z: 0}
  m_LocalScale: {x: 1, y: 1, z: 1}
  m_Children: []
  m_Father: {fileID: 0}
  m_RootOrder: 2
  m_LocalEulerAnglesHint: {x: 0, y: 0, z: 0}
--- !u!114 &1206637896
MonoBehaviour:
  m_ObjectHideFlags: 0
  m_PrefabParentObject: {fileID: 0}
  m_PrefabInternal: {fileID: 0}
  m_GameObject: {fileID: 1206637894}
  m_Enabled: 1
  m_EditorHideFlags: 0
  m_Script: {fileID: 11500000, guid: 10fcfd07e9db6a84f9e3726eda241d5c, type: 3}
  m_Name: 
  m_EditorClassIdentifier: 
  logoVideo: {fileID: 642879338}
  image: {fileID: 228549034}
  videoToPlay: {fileID: 32900000, guid: b6d0ff524c87b074f86ef84d8e67769b, type: 3}
  logoImage: {fileID: 1783236162}
  splashImage: {fileID: 1153699163}
--- !u!1001 &1218395324
Prefab:
  m_ObjectHideFlags: 0
  serializedVersion: 2
  m_Modification:
    m_TransformParent: {fileID: 482875106}
    m_Modifications:
    - target: {fileID: 224534707246761050, guid: 06cd200bc6d90934d8d44fdef72272c5,
        type: 2}
      propertyPath: m_LocalPosition.x
      value: 0
      objectReference: {fileID: 0}
    - target: {fileID: 224534707246761050, guid: 06cd200bc6d90934d8d44fdef72272c5,
        type: 2}
      propertyPath: m_LocalPosition.y
      value: 0
      objectReference: {fileID: 0}
    - target: {fileID: 224534707246761050, guid: 06cd200bc6d90934d8d44fdef72272c5,
        type: 2}
      propertyPath: m_LocalPosition.z
      value: 0
      objectReference: {fileID: 0}
    - target: {fileID: 224534707246761050, guid: 06cd200bc6d90934d8d44fdef72272c5,
        type: 2}
      propertyPath: m_LocalRotation.x
      value: 0
      objectReference: {fileID: 0}
    - target: {fileID: 224534707246761050, guid: 06cd200bc6d90934d8d44fdef72272c5,
        type: 2}
      propertyPath: m_LocalRotation.y
      value: 0
      objectReference: {fileID: 0}
    - target: {fileID: 224534707246761050, guid: 06cd200bc6d90934d8d44fdef72272c5,
        type: 2}
      propertyPath: m_LocalRotation.z
      value: 0
      objectReference: {fileID: 0}
    - target: {fileID: 224534707246761050, guid: 06cd200bc6d90934d8d44fdef72272c5,
        type: 2}
      propertyPath: m_LocalRotation.w
      value: 1
      objectReference: {fileID: 0}
    - target: {fileID: 224534707246761050, guid: 06cd200bc6d90934d8d44fdef72272c5,
        type: 2}
      propertyPath: m_RootOrder
      value: 2
      objectReference: {fileID: 0}
    - target: {fileID: 224534707246761050, guid: 06cd200bc6d90934d8d44fdef72272c5,
        type: 2}
      propertyPath: m_AnchoredPosition.x
      value: 0
      objectReference: {fileID: 0}
    - target: {fileID: 224534707246761050, guid: 06cd200bc6d90934d8d44fdef72272c5,
        type: 2}
      propertyPath: m_AnchoredPosition.y
      value: 0
      objectReference: {fileID: 0}
    - target: {fileID: 224534707246761050, guid: 06cd200bc6d90934d8d44fdef72272c5,
        type: 2}
      propertyPath: m_SizeDelta.x
      value: 4
      objectReference: {fileID: 0}
    - target: {fileID: 224534707246761050, guid: 06cd200bc6d90934d8d44fdef72272c5,
        type: 2}
      propertyPath: m_SizeDelta.y
      value: 0
      objectReference: {fileID: 0}
    - target: {fileID: 224534707246761050, guid: 06cd200bc6d90934d8d44fdef72272c5,
        type: 2}
      propertyPath: m_AnchorMin.x
      value: 0
      objectReference: {fileID: 0}
    - target: {fileID: 224534707246761050, guid: 06cd200bc6d90934d8d44fdef72272c5,
        type: 2}
      propertyPath: m_AnchorMin.y
      value: 0
      objectReference: {fileID: 0}
    - target: {fileID: 224534707246761050, guid: 06cd200bc6d90934d8d44fdef72272c5,
        type: 2}
      propertyPath: m_AnchorMax.x
      value: 1
      objectReference: {fileID: 0}
    - target: {fileID: 224534707246761050, guid: 06cd200bc6d90934d8d44fdef72272c5,
        type: 2}
      propertyPath: m_AnchorMax.y
      value: 1
      objectReference: {fileID: 0}
    - target: {fileID: 224534707246761050, guid: 06cd200bc6d90934d8d44fdef72272c5,
        type: 2}
      propertyPath: m_Pivot.x
      value: 0.5
      objectReference: {fileID: 0}
    - target: {fileID: 224534707246761050, guid: 06cd200bc6d90934d8d44fdef72272c5,
        type: 2}
      propertyPath: m_Pivot.y
      value: 0.5
      objectReference: {fileID: 0}
    m_RemovedComponents: []
  m_ParentPrefab: {fileID: 100100000, guid: 06cd200bc6d90934d8d44fdef72272c5, type: 2}
  m_IsPrefabParent: 0
--- !u!1001 &1595088279
Prefab:
  m_ObjectHideFlags: 0
  serializedVersion: 2
  m_Modification:
    m_TransformParent: {fileID: 482875106}
    m_Modifications:
    - target: {fileID: 224193976847198276, guid: c4bddd89cc57a9d41801ebada1a6ce3e,
        type: 2}
      propertyPath: m_LocalPosition.x
      value: 0
      objectReference: {fileID: 0}
    - target: {fileID: 224193976847198276, guid: c4bddd89cc57a9d41801ebada1a6ce3e,
        type: 2}
      propertyPath: m_LocalPosition.y
      value: 0
      objectReference: {fileID: 0}
    - target: {fileID: 224193976847198276, guid: c4bddd89cc57a9d41801ebada1a6ce3e,
        type: 2}
      propertyPath: m_LocalPosition.z
      value: 0
      objectReference: {fileID: 0}
    - target: {fileID: 224193976847198276, guid: c4bddd89cc57a9d41801ebada1a6ce3e,
        type: 2}
      propertyPath: m_LocalRotation.x
      value: 0
      objectReference: {fileID: 0}
    - target: {fileID: 224193976847198276, guid: c4bddd89cc57a9d41801ebada1a6ce3e,
        type: 2}
      propertyPath: m_LocalRotation.y
      value: 0
      objectReference: {fileID: 0}
    - target: {fileID: 224193976847198276, guid: c4bddd89cc57a9d41801ebada1a6ce3e,
        type: 2}
      propertyPath: m_LocalRotation.z
      value: 0
      objectReference: {fileID: 0}
    - target: {fileID: 224193976847198276, guid: c4bddd89cc57a9d41801ebada1a6ce3e,
        type: 2}
      propertyPath: m_LocalRotation.w
      value: 1
      objectReference: {fileID: 0}
    - target: {fileID: 224193976847198276, guid: c4bddd89cc57a9d41801ebada1a6ce3e,
        type: 2}
      propertyPath: m_RootOrder
      value: 0
      objectReference: {fileID: 0}
    - target: {fileID: 224193976847198276, guid: c4bddd89cc57a9d41801ebada1a6ce3e,
        type: 2}
      propertyPath: m_AnchoredPosition.x
      value: 0
      objectReference: {fileID: 0}
    - target: {fileID: 224193976847198276, guid: c4bddd89cc57a9d41801ebada1a6ce3e,
        type: 2}
      propertyPath: m_AnchoredPosition.y
      value: 0
      objectReference: {fileID: 0}
    - target: {fileID: 224193976847198276, guid: c4bddd89cc57a9d41801ebada1a6ce3e,
        type: 2}
      propertyPath: m_SizeDelta.x
      value: 0
      objectReference: {fileID: 0}
    - target: {fileID: 224193976847198276, guid: c4bddd89cc57a9d41801ebada1a6ce3e,
        type: 2}
      propertyPath: m_SizeDelta.y
      value: 0
      objectReference: {fileID: 0}
    - target: {fileID: 224193976847198276, guid: c4bddd89cc57a9d41801ebada1a6ce3e,
        type: 2}
      propertyPath: m_AnchorMin.x
      value: 0
      objectReference: {fileID: 0}
    - target: {fileID: 224193976847198276, guid: c4bddd89cc57a9d41801ebada1a6ce3e,
        type: 2}
      propertyPath: m_AnchorMin.y
      value: 0
      objectReference: {fileID: 0}
    - target: {fileID: 224193976847198276, guid: c4bddd89cc57a9d41801ebada1a6ce3e,
        type: 2}
      propertyPath: m_AnchorMax.x
      value: 1
      objectReference: {fileID: 0}
    - target: {fileID: 224193976847198276, guid: c4bddd89cc57a9d41801ebada1a6ce3e,
        type: 2}
      propertyPath: m_AnchorMax.y
      value: 1
      objectReference: {fileID: 0}
    - target: {fileID: 224193976847198276, guid: c4bddd89cc57a9d41801ebada1a6ce3e,
        type: 2}
      propertyPath: m_Pivot.x
      value: 0.5
      objectReference: {fileID: 0}
    - target: {fileID: 224193976847198276, guid: c4bddd89cc57a9d41801ebada1a6ce3e,
        type: 2}
      propertyPath: m_Pivot.y
      value: 0.5
      objectReference: {fileID: 0}
    - target: {fileID: 114902374467605456, guid: c4bddd89cc57a9d41801ebada1a6ce3e,
        type: 2}
      propertyPath: m_Color.a
      value: 0
      objectReference: {fileID: 0}
    - target: {fileID: 114902374467605456, guid: c4bddd89cc57a9d41801ebada1a6ce3e,
        type: 2}
      propertyPath: m_Color.r
      value: 1
      objectReference: {fileID: 0}
    - target: {fileID: 114902374467605456, guid: c4bddd89cc57a9d41801ebada1a6ce3e,
        type: 2}
      propertyPath: m_Color.g
      value: 1
      objectReference: {fileID: 0}
    - target: {fileID: 114902374467605456, guid: c4bddd89cc57a9d41801ebada1a6ce3e,
        type: 2}
      propertyPath: m_Color.b
      value: 1
      objectReference: {fileID: 0}
    m_RemovedComponents: []
  m_ParentPrefab: {fileID: 100100000, guid: c4bddd89cc57a9d41801ebada1a6ce3e, type: 2}
  m_IsPrefabParent: 0
--- !u!1 &1783236162 stripped
GameObject:
  m_PrefabParentObject: {fileID: 1019997352566056, guid: e597b91f525da684cb2abc33624f330e,
    type: 2}
  m_PrefabInternal: {fileID: 2062069861}
--- !u!1001 &2059334216
Prefab:
  m_ObjectHideFlags: 0
  serializedVersion: 2
  m_Modification:
    m_TransformParent: {fileID: 0}
    m_Modifications:
    - target: {fileID: 4295516865407126, guid: a9fe112fc6d169f41a12b725e039f035, type: 2}
      propertyPath: m_LocalPosition.x
      value: 0
      objectReference: {fileID: 0}
    - target: {fileID: 4295516865407126, guid: a9fe112fc6d169f41a12b725e039f035, type: 2}
      propertyPath: m_LocalPosition.y
      value: 0
      objectReference: {fileID: 0}
    - target: {fileID: 4295516865407126, guid: a9fe112fc6d169f41a12b725e039f035, type: 2}
      propertyPath: m_LocalPosition.z
      value: -10
      objectReference: {fileID: 0}
    - target: {fileID: 4295516865407126, guid: a9fe112fc6d169f41a12b725e039f035, type: 2}
      propertyPath: m_LocalRotation.x
      value: 0
      objectReference: {fileID: 0}
    - target: {fileID: 4295516865407126, guid: a9fe112fc6d169f41a12b725e039f035, type: 2}
      propertyPath: m_LocalRotation.y
      value: 0
      objectReference: {fileID: 0}
    - target: {fileID: 4295516865407126, guid: a9fe112fc6d169f41a12b725e039f035, type: 2}
      propertyPath: m_LocalRotation.z
      value: 0
      objectReference: {fileID: 0}
    - target: {fileID: 4295516865407126, guid: a9fe112fc6d169f41a12b725e039f035, type: 2}
      propertyPath: m_LocalRotation.w
      value: 1
      objectReference: {fileID: 0}
    - target: {fileID: 4295516865407126, guid: a9fe112fc6d169f41a12b725e039f035, type: 2}
      propertyPath: m_RootOrder
      value: 0
      objectReference: {fileID: 0}
    m_RemovedComponents: []
  m_ParentPrefab: {fileID: 100100000, guid: a9fe112fc6d169f41a12b725e039f035, type: 2}
  m_IsPrefabParent: 0
--- !u!20 &2059334217 stripped
Camera:
  m_PrefabParentObject: {fileID: 20891713151113534, guid: a9fe112fc6d169f41a12b725e039f035,
    type: 2}
  m_PrefabInternal: {fileID: 2059334216}
--- !u!1001 &2062069861
Prefab:
  m_ObjectHideFlags: 0
  serializedVersion: 2
  m_Modification:
    m_TransformParent: {fileID: 482875106}
    m_Modifications:
    - target: {fileID: 224460131300456240, guid: e597b91f525da684cb2abc33624f330e,
        type: 2}
      propertyPath: m_LocalPosition.x
      value: 0
      objectReference: {fileID: 0}
    - target: {fileID: 224460131300456240, guid: e597b91f525da684cb2abc33624f330e,
        type: 2}
      propertyPath: m_LocalPosition.y
      value: 0
      objectReference: {fileID: 0}
    - target: {fileID: 224460131300456240, guid: e597b91f525da684cb2abc33624f330e,
        type: 2}
      propertyPath: m_LocalPosition.z
      value: 0
      objectReference: {fileID: 0}
    - target: {fileID: 224460131300456240, guid: e597b91f525da684cb2abc33624f330e,
        type: 2}
      propertyPath: m_LocalRotation.x
      value: 0
      objectReference: {fileID: 0}
    - target: {fileID: 224460131300456240, guid: e597b91f525da684cb2abc33624f330e,
        type: 2}
      propertyPath: m_LocalRotation.y
      value: 0
      objectReference: {fileID: 0}
    - target: {fileID: 224460131300456240, guid: e597b91f525da684cb2abc33624f330e,
        type: 2}
      propertyPath: m_LocalRotation.z
      value: 0
      objectReference: {fileID: 0}
    - target: {fileID: 224460131300456240, guid: e597b91f525da684cb2abc33624f330e,
        type: 2}
      propertyPath: m_LocalRotation.w
      value: 1
      objectReference: {fileID: 0}
    - target: {fileID: 224460131300456240, guid: e597b91f525da684cb2abc33624f330e,
        type: 2}
      propertyPath: m_RootOrder
      value: 1
      objectReference: {fileID: 0}
    - target: {fileID: 224460131300456240, guid: e597b91f525da684cb2abc33624f330e,
        type: 2}
      propertyPath: m_AnchoredPosition.x
      value: 0
      objectReference: {fileID: 0}
    - target: {fileID: 224460131300456240, guid: e597b91f525da684cb2abc33624f330e,
        type: 2}
      propertyPath: m_AnchoredPosition.y
      value: 0
      objectReference: {fileID: 0}
    - target: {fileID: 224460131300456240, guid: e597b91f525da684cb2abc33624f330e,
        type: 2}
      propertyPath: m_SizeDelta.x
      value: 0
      objectReference: {fileID: 0}
    - target: {fileID: 224460131300456240, guid: e597b91f525da684cb2abc33624f330e,
        type: 2}
      propertyPath: m_SizeDelta.y
      value: 0
      objectReference: {fileID: 0}
    - target: {fileID: 224460131300456240, guid: e597b91f525da684cb2abc33624f330e,
        type: 2}
      propertyPath: m_AnchorMin.x
      value: 0
      objectReference: {fileID: 0}
    - target: {fileID: 224460131300456240, guid: e597b91f525da684cb2abc33624f330e,
        type: 2}
      propertyPath: m_AnchorMin.y
      value: 0
      objectReference: {fileID: 0}
    - target: {fileID: 224460131300456240, guid: e597b91f525da684cb2abc33624f330e,
        type: 2}
      propertyPath: m_AnchorMax.x
      value: 1
      objectReference: {fileID: 0}
    - target: {fileID: 224460131300456240, guid: e597b91f525da684cb2abc33624f330e,
        type: 2}
      propertyPath: m_AnchorMax.y
      value: 1
      objectReference: {fileID: 0}
    - target: {fileID: 224460131300456240, guid: e597b91f525da684cb2abc33624f330e,
        type: 2}
      propertyPath: m_Pivot.x
      value: 0.5
      objectReference: {fileID: 0}
    - target: {fileID: 224460131300456240, guid: e597b91f525da684cb2abc33624f330e,
        type: 2}
      propertyPath: m_Pivot.y
      value: 0.5
      objectReference: {fileID: 0}
    m_RemovedComponents: []
  m_ParentPrefab: {fileID: 100100000, guid: e597b91f525da684cb2abc33624f330e, type: 2}
  m_IsPrefabParent: 0
